{
  "tasksPath": "./tasks",
  "stylusSrcFolder": "./src/web/css",
  "stylusDestFolder": "./dist/web/css",
  "pugSrcFolder": "./src",
  "pugDestFolder": "./dist",
  "jsSrcFolder": "./src/js",
  "jsDestFolder": "./dist/js",
  "imgSrcFolder": "./src/img",
  "imgDestFolder": "./dist/img"
}
